Exploring 2016 Twitter Trolls
…
We also have a gamma, which tells us the probability that a given document (or, in our case, troll) belongs to a particular topic.

td_gamma_hash <- tidy(topic_model_hash, matrix = "gamma",
                      document_names = rownames(tweets_sparse_hash)) %>%
  arrange(document)

categorize_user <- td_gamma_hash %>%
  group_by(document) %>%
  top_n(1, gamma) %>%
  mutate(color = map_chr(topic, function(x){scales::brewer_pal('qual')(6)[x]})) %>%
  rename(name = document)

categorize_user

## # A tibble: 401 x 4
## # Groups:   name [401]
##    name          topic gamma color  
##    <chr>         <int> <dbl> <chr>  
##  1 _billy_moyer_     2 0.996 #BEAED4
##  2 _nickluna_        2 0.785 #BEAED4
##  3 _sashalapin       5 0.926 #386CB0
##  4 4mysquad          6 0.957 #F0027F
##  5 6druz             2 0.397 #BEAED4
##  6 aantiracist       6 0.880 #F0027F
##  7 abigailssilk      1 0.638 #7FC97F
##  8 acejinev          6 0.921 #F0027F
##  9 adamchapmanjr     6 0.794 #F0027F
## 10 adrgreerr         6 0.677 #F0027F
## # ... with 391 more rows
…
